<svg xmlns="http://www.w3.org/2000/svg" viewBox="4145 -1860 18 18">
  <defs>
    <style>
      .cls-1 {
        fill: #010101;
        fill-rule: evenodd;
        opacity: 0.54;
      }

      .cls-2 {
        fill: #fff;
      }
    </style>
  </defs>
  <g id="Group_72" data-name="Group 72" transform="translate(4058 -2070)">
    <g id="checkbox_off_light" transform="translate(8 31)">
      <path id="checkbox" class="cls-1" d="M19,5V19H5V5Zm0-2H5A2.006,2.006,0,0,0,3,5V19a2.006,2.006,0,0,0,2,2H19a2.006,2.006,0,0,0,2-2V5a2.006,2.006,0,0,0-2-2Z" transform="translate(76 176)"/>
    </g>
    <rect id="Rectangle_37" data-name="Rectangle 37" class="cls-2" width="14" height="14" transform="translate(89 212)"/>
  </g>
</svg>
